{ "transactions": [
	{      "id": 126985,      "dateTimeUtc": "2014-06-23T12:15:56",      "amount": 14.6160,      "currencyCode": "GBP",      "amountInCardCurrency": 15.16,      "additionalCommissionInCardCurrency": 0.0000,      "info": "McDonald's",      "transactionType": 7,      "mcc": null,      "category": null,      "comment": null,      "imgUrl": "http://dev.bank4you.uk/Static/m/79.png"    },
	{      "id": 126984,      "dateTimeUtc": "2014-06-23T12:15:56",      "amount": 14999.1960,      "currencyCode": "CZK",      "amountInCardCurrency": 446.2,      "additionalCommissionInCardCurrency": 0.0000,      "info": "Apple",      "transactionType": 3,      "mcc": null,      "category": null,      "comment": null,      "imgUrl": "http://dev.bank4you.uk/Static/m/9.png"    },
	{      "id": 126987,      "dateTimeUtc": "2014-06-23T09:04:58",      "amount": 7.1760,      "currencyCode": "GBP",      "amountInCardCurrency": 7.72,      "additionalCommissionInCardCurrency": 0.0000,      "info": "Skype",      "transactionType": 7,      "mcc": null,      "category": null,      "comment": null,      "imgUrl": "http://dev.bank4you.uk/Static/m/30.png"    },
	{      "id": 126986,      "dateTimeUtc": "2014-06-23T09:04:58",      "amount": 8705.1960,      "currencyCode": "CZK",      "amountInCardCurrency": 258.76,      "additionalCommissionInCardCurrency": 0.0000,      "info": "Spar",      "transactionType": 3,      "mcc": null,      "category": null,      "comment": null,      "imgUrl": "http://dev.bank4you.uk/Static/m/33.png"    },
	{      "id": 126989,      "dateTimeUtc": "2014-06-23T09:04:57",      "amount": -0.5840,      "currencyCode": "GBP",      "amountInCardCurrency": -0.03,      "additionalCommissionInCardCurrency": 0.0000,      "info": "H&M",      "transactionType": 7,      "mcc": null,      "category": null,      "comment": null,      "imgUrl": "http://dev.bank4you.uk/Static/m/34.png"    },
	{      "id": 126988,      "dateTimeUtc": "2014-06-23T09:04:57",      "amount": 0.1960,      "currencyCode": "CZK",      "amountInCardCurrency": 0.74,      "additionalCommissionInCardCurrency": 0.0000,      "info": "O'stin",      "transactionType": 3,      "mcc": null,      "category": null,      "comment": null,      "imgUrl": "http://dev.bank4you.uk/Static/m/45.png"    },
	{      "id": 126991,      "dateTimeUtc": "2014-06-22T17:31:07",      "amount": -0.6140,      "currencyCode": "GBP",      "amountInCardCurrency": -0.06,      "additionalCommissionInCardCurrency": 0.0000,      "info": "KFC",      "transactionType": 7,      "mcc": null,      "category": null,      "comment": null,      "imgUrl": "http://dev.bank4you.uk/Static/m/58.png"    },
	{      "id": 126921,      "dateTimeUtc": "2014-05-27T12:08:05",      "amount": 6.2960,      "currencyCode": "GBP",      "amountInCardCurrency": 6.84,      "additionalCommissionInCardCurrency": 0.0000,      "info": "New Yorker",      "transactionType": 7,      "mcc": null,      "category": null,      "comment": null,      "imgUrl": "http://dev.bank4you.uk/Static/m/61.png"    },
	{      "id": 126920,      "dateTimeUtc": "2014-05-27T12:08:05",      "amount": 273.3860,      "currencyCode": "EUR",      "amountInCardCurrency": 225.81,      "additionalCommissionInCardCurrency": 0.0000,      "info": "Starbucks",      "transactionType": 3,      "mcc": null,      "category": null,      "comment": null,      "imgUrl": "http://dev.bank4you.uk/Static/m/62.png"    },
	{      "id": 126923,      "dateTimeUtc": "2014-05-26T15:24:56",      "amount": 14.7960,      "currencyCode": "GBP",      "amountInCardCurrency": 15.34,      "additionalCommissionInCardCurrency": 0.0000,      "info": "Subway",      "transactionType": 7,      "mcc": null,      "category": null,      "comment": null,      "imgUrl": "http://dev.bank4you.uk/Static/m/64.png"    },
	{      "id": 126922,      "dateTimeUtc": "2014-05-26T15:24:56",      "amount": 14999.1960,      "currencyCode": "CZK",      "amountInCardCurrency": 451.88,      "additionalCommissionInCardCurrency": 0.0000,      "info": "Stockmann",      "transactionType": 3,      "mcc": null,      "category": null,      "comment": null,      "imgUrl": "http://dev.bank4you.uk/Static/m/67.png"    },
	{      "id": 126926,      "dateTimeUtc": "2014-05-23T20:42:20",      "amount": 1.4760,      "currencyCode": "GBP",      "amountInCardCurrency": 2.02,      "additionalCommissionInCardCurrency": 0.0000,      "info": "IKEA",      "transactionType": 5,      "mcc": null,      "category": null,      "comment": null,      "imgUrl": "http://dev.bank4you.uk/Static/m/69.png"    },
	{      "id": 126925,      "dateTimeUtc": "2014-05-23T20:42:20",      "amount": 1.7660,      "currencyCode": "GBP",      "amountInCardCurrency": 2.31,      "additionalCommissionInCardCurrency": 0.0000,      "info": "Boots",      "transactionType": 5,      "mcc": null,      "category": null,      "comment": null,      "imgUrl": "http://dev.bank4you.uk/Static/m/124.png"    },
	{      "id": 126924,      "dateTimeUtc": "2014-05-23T20:42:20",      "amount": 3799.1960,      "currencyCode": "CZK",      "amountInCardCurrency": 114.21,      "additionalCommissionInCardCurrency": 0.0000,      "info": "Aldo Coppola",      "transactionType": 2,      "mcc": null,      "category": null,      "comment": null,      "imgUrl": "http://dev.bank4you.uk/Static/m/122.png"    },
	{      "id": 126929,      "dateTimeUtc": "2014-05-23T20:42:16",      "amount": -0.5140,      "currencyCode": "GBP",      "amountInCardCurrency": 0.03,      "additionalCommissionInCardCurrency": 0.0000,      "info": "Esprit",      "transactionType": 5,      "mcc": null,      "category": null,      "comment": null,      "imgUrl": "http://dev.bank4you.uk/Static/m/131.png"    }]}
