{ "transactions": [
	{      "id": 126985,      "dateTimeUtc": "2014-06-23T12:15:56",      "amount": 14.6160,      "currencyCode": "GBP",      "amountInCardCurrency": 15.16,      "additionalCommissionInCardCurrency": 0.0000,      "info": "Vodafone",      "transactionType": 7,      "mcc": null,      "category": "Cell Phone",      "comment": null,      "imgUrl": "http://i9.pixs.ru/storage/2/1/7/150png_3198713_21798217.png"    },
	{      "id": 126984,      "dateTimeUtc": "2014-06-23T12:15:56",      "amount": 14999.1960,      "currencyCode": "CZK",      "amountInCardCurrency": 446.2,      "additionalCommissionInCardCurrency": 0.0000,      "info": "Vertu",      "transactionType": 3,      "mcc": null,      "category": "Cell Phone",      "comment": null,      "imgUrl": "http://i9.pixs.ru/storage/2/4/1/953png_9593007_21798241.png"    },
	{      "id": 126987,      "dateTimeUtc": "2014-06-23T09:04:58",      "amount": 7.1760,      "currencyCode": "GBP",      "amountInCardCurrency": 7.72,      "additionalCommissionInCardCurrency": 0.0000,      "info": "Lego",      "transactionType": 7,      "mcc": null,      "category": "Other",      "comment": null,      "imgUrl": "http://i11.pixs.ru/storage/2/5/0/213png_1722243_21798250.png"    },
	{      "id": 126986,      "dateTimeUtc": "2014-06-23T09:04:58",      "amount": 8705.1960,      "currencyCode": "CZK",      "amountInCardCurrency": 258.76,      "additionalCommissionInCardCurrency": 0.0000,      "info": "Longchamp",      "transactionType": 3,      "mcc": null,      "category": "Clothes",      "comment": null,      "imgUrl": "http://i9.pixs.ru/storage/2/6/9/706png_4023262_21798269.png"    },
	{      "id": 126989,      "dateTimeUtc": "2014-06-23T09:04:57",      "amount": -0.5840,      "currencyCode": "GBP",      "amountInCardCurrency": -0.03,      "additionalCommissionInCardCurrency": 0.0000,      "info": "Mustang Jeans",      "transactionType": 7,      "mcc": null,      "category": "Clothes",      "comment": null,      "imgUrl": "http://i9.pixs.ru/storage/2/7/8/766png_2570655_21798278.png"    },
	{      "id": 126988,      "dateTimeUtc": "2014-06-23T09:04:57",      "amount": 0.1960,      "currencyCode": "CZK",      "amountInCardCurrency": 0.74,      "additionalCommissionInCardCurrency": 0.0000,      "info": "Quiksilver",      "transactionType": 3,      "mcc": null,      "category": "Clothes",      "comment": null,      "imgUrl": "http://i11.pixs.ru/storage/2/8/7/833png_8876750_21798287.png"    },
	{      "id": 126991,      "dateTimeUtc": "2014-06-22T17:31:07",      "amount": -0.6140,      "currencyCode": "GBP",      "amountInCardCurrency": -0.06,      "additionalCommissionInCardCurrency": 0.0000,      "info": "Domino's Pizza",      "transactionType": 7,      "mcc": null,      "category": "Restaurants",      "comment": null,      "imgUrl": "http://i9.pixs.ru/storage/2/9/9/1351png_7389528_21798299.png"    },
	{      "id": 126921,      "dateTimeUtc": "2014-05-27T12:08:05",      "amount": 6.2960,      "currencyCode": "GBP",      "amountInCardCurrency": 6.84,      "additionalCommissionInCardCurrency": 0.0000,      "info": "Shell",      "transactionType": 7,      "mcc": null,      "category": "Transport",      "comment": null,      "imgUrl": "http://i11.pixs.ru/storage/3/1/1/2005png_3091877_21798311.png"    },
	{      "id": 126920,      "dateTimeUtc": "2014-05-27T12:08:05",      "amount": 273.3860,      "currencyCode": "EUR",      "amountInCardCurrency": 225.81,      "additionalCommissionInCardCurrency": 0.0000,      "info": "Starbucks",      "transactionType": 3,      "mcc": null,      "category": "Restaurants",      "comment": null,      "imgUrl": "http://i11.pixs.ru/storage/3/3/9/62png_3085409_21798339.png"    },
	{      "id": 126923,      "dateTimeUtc": "2014-05-26T15:24:56",      "amount": 14.7960,      "currencyCode": "GBP",      "amountInCardCurrency": 15.34,      "additionalCommissionInCardCurrency": 0.0000,      "info": "KFC",      "transactionType": 7,      "mcc": null,      "category": "Restaurants",      "comment": null,      "imgUrl": "http://i11.pixs.ru/storage/3/6/0/58png_1457650_21798360.png"    },
	{      "id": 126922,      "dateTimeUtc": "2014-05-26T15:24:56",      "amount": 14999.1960,      "currencyCode": "CZK",      "amountInCardCurrency": 451.88,      "additionalCommissionInCardCurrency": 0.0000,      "info": "Kira Plastinina",      "transactionType": 3,      "mcc": null,      "category": "Clothes",      "comment": null,      "imgUrl": "http://i11.pixs.ru/storage/3/8/8/210png_9799962_21798388.png"    },
	{      "id": 126926,      "dateTimeUtc": "2014-05-23T20:42:20",      "amount": 1.4760,      "currencyCode": "GBP",      "amountInCardCurrency": 2.02,      "additionalCommissionInCardCurrency": 0.0000,      "info": "Chanel",      "transactionType": 5,      "mcc": null,      "category": "Clothes",      "comment": null,      "imgUrl": "http://i11.pixs.ru/storage/4/3/9/481png_5359463_21798439.png"    },
	{      "id": 126925,      "dateTimeUtc": "2014-05-23T20:42:20",      "amount": 1.7660,      "currencyCode": "GBP",      "amountInCardCurrency": 2.31,      "additionalCommissionInCardCurrency": 0.0000,      "info": "Boots",      "transactionType": 5,      "mcc": null,      "category": "Other",      "comment": null,      "imgUrl": "http://i9.pixs.ru/storage/6/5/5/124png_4918236_21798655.png"    },
	{      "id": 126924,      "dateTimeUtc": "2014-05-23T20:42:20",      "amount": 3799.1960,      "currencyCode": "CZK",      "amountInCardCurrency": 114.21,      "additionalCommissionInCardCurrency": 0.0000,      "info": "Aldo Coppola",      "transactionType": 2,      "mcc": null,      "category": "Services",      "comment": null,      "imgUrl": "http://i9.pixs.ru/storage/6/8/2/122png_8814734_21798682.png"    },
	{      "id": 126929,      "dateTimeUtc": "2014-05-23T20:42:16",      "amount": -0.5140,      "currencyCode": "GBP",      "amountInCardCurrency": 0.03,      "additionalCommissionInCardCurrency": 0.0000,      "info": "Esprit",      "transactionType": 5,      "mcc": null,      "category": "Clothes",      "comment": null,      "imgUrl": "http://i11.pixs.ru/storage/7/0/1/131png_5746900_21798701.png"    }]}
